Project-1 Checkpoint
…
               region               country                  iso3 
                    0                     0                     0 
                 year                 month       measles_suspect 
                    0                     0                   148 
     measles_clinical    measles_epi_linked measles_lab_confirmed 
                  148                   148                   148 
        measles_total      rubella_clinical    rubella_epi_linked 
                  148                 14969                 14969 
rubella_lab_confirmed         rubella_total             discarded 
                14969                 14969                   148 

# measles
cases_month[is.na(cases_month$rubella_clinical), ]

# A tibble: 14,969 × 15
   region country iso3   year month measles_suspect measles_clinical
   <chr>  <chr>   <chr> <dbl> <dbl>           <dbl>            <dbl>
 1 AFR    Algeria DZA    2012     1               8                6
 2 AFR    Algeria DZA    2012     2              10               10
 3 AFR    Algeria DZA    2012     3              17               17
 4 AFR    Algeria DZA    2012     7               1                0
 5 AFR    Algeria DZA    2012    10               1                1
 6 AFR    Algeria DZA    2012    11               3                3
 7 AFR    Algeria DZA    2013     3              16                0
 8 AFR    Algeria DZA    2013     4               5                0
 9 AFR    Algeria DZA    2014     2               2                0
10 AFR    Algeria DZA    2014     3              11                0
# ℹ 14,959 more rows
# ℹ 8 more variables: measles_epi_linked <dbl>, measles_lab_confirmed <dbl>,
#   measles_total <dbl>, rubella_clinical <dbl>, rubella_epi_linked <dbl>,
#   rubella_lab_confirmed <dbl>, rubella_total <dbl>, discarded <dbl>

# rubella
cases_month[is.na(cases_month$rubella_clinical), ]

# A tibble: 14,969 × 15
   region country iso3   year month measles_suspect measles_clinical
   <chr>  <chr>   <chr> <dbl> <dbl>           <dbl>            <dbl>
 1 AFR    Algeria DZA    2012     1               8                6
 2 AFR    Algeria DZA    2012     2              10               10
 3 AFR    Algeria DZA    2012     3              17               17
 4 AFR    Algeria DZA    2012     7               1                0
 5 AFR    Algeria DZA    2012    10               1                1
 6 AFR    Algeria DZA    2012    11               3                3
 7 AFR    Algeria DZA    2013     3              16                0
 8 AFR    Algeria DZA    2013     4               5                0
 9 AFR    Algeria DZA    2014     2               2                0
10 AFR    Algeria DZA    2014     3              11                0
# ℹ 14,959 more rows
# ℹ 8 more variables: measles_epi_linked <dbl>, measles_lab_confirmed <dbl>,
#   measles_total <dbl>, rubella_clinical <dbl>, rubella_epi_linked <dbl>,
#   rubella_lab_confirmed <dbl>, rubella_total <dbl>, discarded <dbl>
…
